<?xml version="1.0" encoding="utf-8"?>
<!-- Generator: Adobe Illustrator 23.0.2, SVG Export Plug-In . SVG Version: 6.00 Build 0)  -->
<svg version="1.1" id="_x31_" xmlns="http://www.w3.org/2000/svg" xmlns:xlink="http://www.w3.org/1999/xlink" x="0px" y="0px"
	 viewBox="0 0 423.73 427.02" style="enable-background:new 0 0 423.73 427.02;" xml:space="preserve">
<style type="text/css">
	.st0{fill-rule:evenodd;clip-rule:evenodd;fill:#164072;}
	.st1{fill-rule:evenodd;clip-rule:evenodd;fill:#DE522F;}
	.st2{fill-rule:evenodd;clip-rule:evenodd;fill:#FEFEFE;}
</style>
<g>
	<path class="st0" d="M36.07,101.59c58.94-25.21,117.84-50.51,176.78-75.73c59.32,25.4,118.65,50.79,177.94,76.27
		c-0.02,13.95-0.01,27.89-0.01,41.84c-59.34-25.43-118.66-50.89-178.02-76.28c-58.9,25.27-117.8,50.56-176.73,75.78
		C36.05,129.51,35.97,115.55,36.07,101.59L36.07,101.59z M36.78,159.15c34.92,0.01,69.84-0.02,104.76,0.01
		c-0.01,40.66,0,81.32,0,121.98c-11.17,0.01-22.34,0.01-33.51,0c-0.02-31.24,0.02-62.49-0.02-93.74
		c-12.54-0.05-25.08,0.11-37.61-0.08c-0.26,31.26-0.07,62.53-0.1,93.8c-11.17,0.07-22.35,0.01-33.52,0.03
		C36.78,240.48,36.78,199.82,36.78,159.15L36.78,159.15z M154.27,159.16c11.25-0.02,22.51-0.01,33.76-0.01
		c-0.06,23.71,0.09,47.43-0.07,71.14c14-23.69,28.32-47.2,42.16-70.99c11.21-0.35,22.44-0.05,33.66-0.15c0,40.67,0,81.33,0,122
		c-11.17,0-22.33,0-33.49,0c-0.02-23.92-0.01-47.84-0.01-71.75c-13.91,23.54-27.78,47.11-41.63,70.69
		c-0.59,1.64-2.56,0.91-3.83,1.08c-10.18-0.05-20.36,0-30.54-0.02C154.27,240.49,154.29,199.82,154.27,159.16L154.27,159.16z
		 M276.53,159.15c11.17,0,22.33,0,33.5,0c0.03,17.02-0.06,34.05,0.04,51.07c12.4-16.99,24.72-34.03,37.05-51.07
		c13.12,0.02,26.23-0.05,39.35,0.04c-15.1,18.89-30.51,37.54-45.62,56.42c16.64,21.83,33.29,43.65,49.86,65.53
		c-13.88,0.03-27.75-0.01-41.63,0.01c-13.03-19.77-25.8-39.72-39.07-59.33c0.05,19.77,0.01,39.55,0.02,59.33
		c-11.17,0-22.33,0-33.5-0.01C276.53,240.48,276.53,199.81,276.53,159.15z"/>
	<path class="st1" d="M36.79,300.39c117.99,0,235.99,0.01,353.98,0c0.02,29.75,0.01,59.5,0,89.26c-117.99,0-235.99,0.01-353.99-0.01
		C36.78,359.89,36.77,330.14,36.79,300.39z"/>
	<path class="st2" d="M348.4,335.95c2.42,6.04,4.12,12.34,6.26,18.48c-4.13,0.04-8.26,0.02-12.38,0.03
		C344.28,348.27,346.39,342.13,348.4,335.95L348.4,335.95z M117.49,330.86c4.66,0.06,9.41-0.39,13.99,0.73
		c5.09,1.82,4.62,10.18-0.46,11.76c-4.38,1.29-9.04,0.65-13.54,0.79C117.47,339.71,117.46,335.29,117.49,330.86L117.49,330.86z
		 M319.56,374.59c5.46-0.02,10.92,0.01,16.39-0.01c1.05-3.06,2.05-6.14,3.09-9.21c6.26-0.01,12.53-0.01,18.79,0
		c1.08,3.06,2.18,6.11,3.18,9.2c5.47,0.04,10.95,0,16.42,0.02c-7.01-18.75-13.94-37.54-21-56.27c-5.04-0.92-10.56-0.11-15.77-0.39
		C333.54,336.79,326.61,355.72,319.56,374.59L319.56,374.59z M267.36,317.94c-0.03,18.88-0.01,37.76-0.02,56.64
		c5.22,0,10.43,0.02,15.65,0c0.02-14.57-0.01-29.15,0.01-43.72c5.85-0.02,11.7-0.03,17.56,0.01c0.02,14.57-0.01,29.13,0.01,43.7
		c5.22,0.03,10.43,0.01,15.65,0.01c-0.02-18.88,0.01-37.76-0.01-56.63C299.92,317.93,283.64,317.94,267.36,317.94L267.36,317.94z
		 M208.08,317.97c0.04,18.88-0.05,37.77,0.04,56.65c5.22-0.08,10.43-0.01,15.65-0.04c0.02-14.57,0-29.15,0.01-43.72
		c5.84-0.04,11.67,0.01,17.51-0.03c0.12,14.58,0.03,29.17,0.05,43.75c5.21,0,10.43,0.02,15.65-0.01c0-18.87,0.02-37.74-0.01-56.62
		C240.68,317.94,224.38,317.9,208.08,317.97L208.08,317.97z M151.75,317.94c6.28,13.38,12.73,26.69,18.85,40.14
		c-1.48,5.33-8.13,4.31-12.29,3.49c0.06,4.25,0.01,8.51,0.05,12.77c6.13,1.64,13.05,2.05,18.96-0.61c5.32-2.43,7.79-8.09,9.85-13.19
		c5.8-14.22,11.71-28.4,17.53-42.61c-5.68,0.02-11.35,0-17.02,0.01c-2.95,8.44-5.72,16.94-8.51,25.44
		c-3.43-8.33-6.64-16.76-9.72-25.23C163.57,317.65,157.65,318.07,151.75,317.94L151.75,317.94z M101.79,317.94
		c-0.01,18.88-0.02,37.76,0,56.64c5.22,0.03,10.43-0.04,15.65,0.04c0.06-5.98,0.06-11.96-0.01-17.93
		c7.22-0.59,14.64,0.86,21.69-1.22c5.4-1.53,9.97-5.91,11.28-11.43c1.58-6.69,1.37-14.62-3.32-20.09
		c-3.77-4.37-9.75-6.06-15.35-6.03C121.75,317.96,111.77,317.93,101.79,317.94L101.79,317.94z M57.08,317.96
		c0.06,18.89-0.09,37.78,0.07,56.67c5.2-0.1,10.4-0.01,15.61-0.05c0.07-14.41-0.03-28.82,0.05-43.23c7.8,0.02,15.6,0.01,23.4,0.01
		c0.01-4.48,0.01-8.95-0.01-13.42C83.16,317.95,70.12,317.9,57.08,317.96z"/>
</g>
</svg>
