<?xml version="1.0" encoding="utf-8"?>
<!-- Generator: Adobe Illustrator 23.0.1, SVG Export Plug-In . SVG Version: 6.00 Build 0)  -->
<svg version="1.1" id="Layer_1" xmlns="http://www.w3.org/2000/svg" xmlns:xlink="http://www.w3.org/1999/xlink" x="0px" y="0px"
	 viewBox="0 0 226.77 85.04" style="enable-background:new 0 0 226.77 85.04;" xml:space="preserve">
<style type="text/css">
	.st0{fill-rule:evenodd;clip-rule:evenodd;fill:#004A99;}
	.st1{fill-rule:evenodd;clip-rule:evenodd;fill:url(#SVGID_1_);}
	.st2{fill-rule:evenodd;clip-rule:evenodd;fill:url(#SVGID_2_);}
	.st3{fill-rule:evenodd;clip-rule:evenodd;fill:url(#SVGID_3_);}
	.st4{fill-rule:evenodd;clip-rule:evenodd;fill:url(#SVGID_4_);}
	.st5{fill-rule:evenodd;clip-rule:evenodd;fill:url(#SVGID_5_);}
	.st6{fill-rule:evenodd;clip-rule:evenodd;fill:url(#SVGID_6_);}
	.st7{fill-rule:evenodd;clip-rule:evenodd;fill:url(#SVGID_7_);}
	.st8{fill-rule:evenodd;clip-rule:evenodd;fill:#A4AED8;}
	.st9{fill:#004A99;}
</style>
<g>
	<g>
		<path class="st0" d="M186.13,18.87c-2.75,2.88-5.71,3.24-8.39,3.6l-1.32,0.17c-1.44,0.16-2.67,0.26-4.04,1.2
			c-1.37,0.86-2.97,2.81-4.06,4.25c-4.27,0.79-7.82,2.23-10.86,3.97c-5.36,3.17-9.04,7.3-11.8,10.46l-2.9,3.58l0.73-0.41
			c4.92-4.83,9.55-8.29,13.97-10.38c2.75-1.37,5.43-2.17,8.03-2.45h0.07l2.82-3.9c0.73-0.72,1.81-1.01,3.4-1.15l2.83-0.22l2.38-0.14
			l0.8-0.07c1.88-0.29,3.47-0.72,5.72-3.89l2.97-4.33L186.13,18.87z M166.23,31.05c0,0-0.8,1.16-0.95,1.3
			c-2.53,0.36-5.14,1.16-7.81,2.38c-3.4,1.66-6.88,3.97-10.5,7.14c2.53-2.88,5.86-6.42,10.5-9.16c2.9-1.73,6.37-3.18,10.5-3.97
			C167.67,29.04,166.23,31.05,166.23,31.05z M183.1,23.2c-2.1,3.03-3.55,3.46-5.36,3.68l-0.73,0.07l-2.46,0.14l-2.83,0.22
			c-1.16,0.15-2.02,0.36-2.75,0.79c0.95-1.22,2.39-3.03,3.62-3.89c1.31-0.86,2.82-0.94,3.76-1.08l0.58-0.07h0.07l0.8-0.07
			c2.25-0.29,4.78-0.72,7.24-2.6C184.18,21.68,183.1,23.2,183.1,23.2z"/>
		<linearGradient id="SVGID_1_" gradientUnits="userSpaceOnUse" x1="149.2203" y1="36.9809" x2="157.9626" y2="45.6119">
			<stop  offset="0.3067" style="stop-color:#7588C2"/>
			<stop  offset="0.4969" style="stop-color:#BBC1E3"/>
			<stop  offset="0.5201" style="stop-color:#B2B9DF"/>
			<stop  offset="0.6179" style="stop-color:#929ECF"/>
			<stop  offset="0.6975" style="stop-color:#7D8EC6"/>
			<stop  offset="0.7485" style="stop-color:#7588C2"/>
		</linearGradient>
		<path class="st1" d="M143.28,45.55c8.61-6.63,13.17-9.23,23.38-9.37l-2.17,3.17c-0.43,0.87-1.08,0.87-1.74,0.79
			c-7.31-0.07-12.38,0.51-21.21,7.29L143.28,45.55z"/>
		<linearGradient id="SVGID_2_" gradientUnits="userSpaceOnUse" x1="143.546" y1="27.5635" x2="168.8574" y2="45.9533">
			<stop  offset="0" style="stop-color:#FFFFFF"/>
			<stop  offset="0.34" style="stop-color:#FFFFFF"/>
			<stop  offset="0.476" style="stop-color:#FFFFFF"/>
			<stop  offset="0.5773" style="stop-color:#F0F1F9"/>
			<stop  offset="0.6905" style="stop-color:#E5E7F5"/>
			<stop  offset="0.8064" style="stop-color:#E2E4F4"/>
			<stop  offset="1" style="stop-color:#E2E4F4"/>
		</linearGradient>
		<path class="st2" d="M144.03,44.74c0,0.01-0.33,0.33-0.33,0.34c8.43-8.08,15.59-11.72,21.79-12.5c0.58-0.72,2.47-3.39,3.05-4.26
			c-11.26,1.96-17.62,8.64-21.96,13.55C145.51,43.07,144.89,43.85,144.03,44.74z"/>
		<linearGradient id="SVGID_3_" gradientUnits="userSpaceOnUse" x1="149.8055" y1="35.0524" x2="161.9451" y2="47.0363">
			<stop  offset="0.1595" style="stop-color:#004A99"/>
			<stop  offset="0.2078" style="stop-color:#2155A1"/>
			<stop  offset="0.3074" style="stop-color:#5A75B7"/>
			<stop  offset="0.417" style="stop-color:#98A4D3"/>
			<stop  offset="0.4692" style="stop-color:#7386C2"/>
			<stop  offset="0.5336" style="stop-color:#496AB0"/>
			<stop  offset="0.5916" style="stop-color:#2757A3"/>
			<stop  offset="0.6407" style="stop-color:#084D9C"/>
			<stop  offset="0.6748" style="stop-color:#004A99"/>
			<stop  offset="0.8965" style="stop-color:#004A99"/>
		</linearGradient>
		<path class="st3" d="M143.7,45.05c-0.1,0.1-0.42,0.5-0.68,0.78c-0.01,0.02-0.2,0.22-0.22,0.24c2.53-2.17,10.98-9.08,19.88-9.6
			c0.51-0.58,2.05-2.73,2.78-3.89C156.05,33.85,149.49,39.64,143.7,45.05z"/>
		<linearGradient id="SVGID_4_" gradientUnits="userSpaceOnUse" x1="161.7164" y1="35.3556" x2="166.4528" y2="38.4315">
			<stop  offset="0.4601" style="stop-color:#526FB3"/>
			<stop  offset="1" style="stop-color:#C9CEE9"/>
		</linearGradient>
		<path class="st4" d="M164.27,39.71c0.08-0.36,0.3-0.65-0.72-1.3c-1.31-0.8-1.74-0.44-1.45-1.23c0.22-0.65,2.9-1.8,4.92-1.08
			C167.02,36.1,165.21,38.2,164.27,39.71z"/>
		<linearGradient id="SVGID_5_" gradientUnits="userSpaceOnUse" x1="168.4829" y1="23.8296" x2="180.0358" y2="33.4346">
			<stop  offset="0.0798" style="stop-color:#CFD3EC"/>
			<stop  offset="0.1221" style="stop-color:#BAC0E2"/>
			<stop  offset="0.2119" style="stop-color:#8191C8"/>
			<stop  offset="0.3408" style="stop-color:#1A529F"/>
			<stop  offset="0.3604" style="stop-color:#004A99"/>
			<stop  offset="0.4166" style="stop-color:#0A4E9C"/>
			<stop  offset="0.5004" style="stop-color:#2A58A4"/>
			<stop  offset="0.6015" style="stop-color:#4D6CB1"/>
			<stop  offset="0.716" style="stop-color:#7A8BC5"/>
			<stop  offset="0.8403" style="stop-color:#B0B7DD"/>
			<stop  offset="0.9141" style="stop-color:#D2D6ED"/>
		</linearGradient>
		<path class="st5" d="M167.82,29.18l-2.76,3.97c0.65-0.58,2.47-0.94,4.43-0.94h0.5c0.29,0,0.58-0.07,0.87-0.07
			c2.82-0.07,6.66-0.51,8.98-3.32l3.39-4.91c-3.15,3.42-9.36,3.12-11.35,3.46C169.84,27.6,168.62,28.17,167.82,29.18z"/>
		<linearGradient id="SVGID_6_" gradientUnits="userSpaceOnUse" x1="170.0331" y1="18.1388" x2="184.8179" y2="30.4309">
			<stop  offset="0.1742" style="stop-color:#FFFFFF"/>
			<stop  offset="0.2327" style="stop-color:#FAFAFD"/>
			<stop  offset="0.3116" style="stop-color:#EBECF7"/>
			<stop  offset="0.3865" style="stop-color:#D6DAEF"/>
			<stop  offset="0.4066" style="stop-color:#DBDEF1"/>
			<stop  offset="0.5117" style="stop-color:#EFF0F9"/>
			<stop  offset="0.6116" style="stop-color:#FBFBFE"/>
			<stop  offset="0.7" style="stop-color:#FFFFFF"/>
		</linearGradient>
		<path class="st6" d="M176.94,22.84c-0.87,0.15-2.82,0.07-4.42,1.16c-1.66,1.08-3.66,3.71-4.61,5.08c0.87-1.01,2.15-1.33,3.89-1.55
			c1.74-0.21,4.2-0.14,6.01-0.43c1.73-0.21,3.33-0.58,5.5-3.75l3.04-4.33C183.24,22.26,179.84,22.4,176.94,22.84z"/>
		<linearGradient id="SVGID_7_" gradientUnits="userSpaceOnUse" x1="165.2045" y1="28.1034" x2="177.1812" y2="38.0608">
			<stop  offset="0.0736" style="stop-color:#DEE0F2"/>
			<stop  offset="0.1144" style="stop-color:#D9DCF0"/>
			<stop  offset="0.164" style="stop-color:#CCD0EA"/>
			<stop  offset="0.218" style="stop-color:#B6BDE0"/>
			<stop  offset="0.2748" style="stop-color:#97A3D2"/>
			<stop  offset="0.3252" style="stop-color:#7588C2"/>
			<stop  offset="0.5153" style="stop-color:#7588C2"/>
			<stop  offset="0.5734" style="stop-color:#8191C8"/>
			<stop  offset="0.6799" style="stop-color:#A0AAD6"/>
			<stop  offset="0.7607" style="stop-color:#BBC1E3"/>
		</linearGradient>
		<path class="st7" d="M173.46,31.7c-2.1,0.29-4.49,0.36-5.21,0.43c-1.16,0-2.75,0.43-3.18,1.01c-1.38,1.73-2.61,3.32-2.97,4.04
			c0.8-0.8,3.48-0.72,6.74-0.87c3.25-0.14,6.51-1.66,9.12-4.76l1.98-2.88C178.63,30.48,176.29,31.27,173.46,31.7z"/>
	</g>
	<path class="st8" d="M73.34,61.72c2.91,0.51,8.38,1.24,15.15,1.38c6.7,0.22,14.64-0.22,22-1.38c7.51-1.17,14.5-3.06,19.53-5.1
		c4.96-1.97,7.8-4.37,7.8-4.37s-2.92,2.77-8.23,5.17c-5.25,2.48-12.68,4.88-20.4,6.41c-7.87,1.6-16.03,2.33-22.66,2.33
		c-6.7,0.07-11.88-0.51-13.7-0.88c-6.27-0.95-10.78-2.69-13.55-4.3c-2.84-1.68-3.79-3.21-3.49-3.5c0.36-0.36,1.74,0.37,4.59,1.24
		C63.13,59.67,67.51,60.84,73.34,61.72z"/>
	<g>
		<polygon class="st0" points="107.65,31.7 107.72,31.7 112.39,40.58 117.27,40.58 111,29.07 106.92,29.07 101.17,40.58 
			103.36,40.58 		"/>
		<path class="st0" d="M44.99,30.68c-1.9-1.46-4.66-1.97-7.07-1.97c-1.6,0-3.06,0.15-4.52,0.73c-1.24,0.44-2.26,1.09-3.21,1.96
			l2.19,1.24l0.51-0.58c0.44-0.51,1.17-0.95,1.89-1.24c0.88-0.44,1.82-0.51,2.77-0.51c1.96,0,3.06,0.65,3.71,1.24
			c0.37,0.44,0.95,1.16,1.09,2.33l-6.77-0.07v1.75l6.77-0.07c-0.07,1.6-0.95,2.48-1.46,2.91c-1.09,0.87-2.69,0.95-3.42,0.95
			c-1.17,0-2.12-0.15-3.06-0.73c-0.66-0.44-1.38-1.02-1.75-1.61l-0.29-0.44l-2.19,1.24c0.65,0.81,1.6,1.53,2.69,2.11
			c1.6,0.8,3.13,1.02,4.96,1.02c1.97,0,4.95-0.29,7.14-1.97c1.53-1.17,2.19-2.77,2.19-4.16C47.18,33.45,46.52,31.84,44.99,30.68z"/>
		<path class="st0" d="M118.21,38.98c1.97,1.46,4.81,1.97,6.85,1.97c2.04,0,4.95-0.51,6.85-1.97c1.53-1.17,2.26-2.77,2.26-4.16
			c0-1.38-0.73-2.99-2.26-4.15c-1.89-1.46-4.81-1.97-6.85-1.97c-2.04,0-4.88,0.51-6.85,1.97c-1.53,1.16-2.19,2.77-2.19,4.15
			C116.03,36.21,116.69,37.82,118.21,38.98z M121.78,31.62c0.95-1.24,2.19-1.46,3.28-1.46c1.1,0,2.33,0.22,3.35,1.46
			c0.73,1.02,0.87,2.19,0.87,3.21c0,1.03-0.14,2.19-0.87,3.21c-1.02,1.23-2.25,1.53-3.35,1.53c-1.09,0-2.33-0.29-3.28-1.53
			c-0.8-1.02-0.94-2.18-0.94-3.21C120.84,33.81,120.98,32.65,121.78,31.62z"/>
		<path class="st0" d="M102.47,34.76c0-1.67-1.01-2.69-1.89-3.28c-1.17-0.8-2.77-1.09-4.45-1.24c-0.43,0-0.87,0-1.31,0h-0.43v-1.6
			h-4.38v1.6h-0.44c-0.44,0-0.87,0-1.31,0c-1.68,0.15-3.28,0.44-4.45,1.24c-0.88,0.58-1.89,1.6-1.89,3.28c0,1.24,0.58,2.4,1.89,3.28
			c0.65,0.44,1.97,1.02,4.45,1.16c0.36,0,0.8,0.07,1.31,0.07h0.44v1.68h4.38v-1.68h0.43c0.51,0,0.95-0.07,1.31-0.07
			c2.48-0.14,3.79-0.73,4.45-1.16C101.9,37.16,102.47,36,102.47,34.76z M90.17,37.75h-0.51c-0.51,0-1.02-0.08-1.38-0.22
			c-0.44-0.15-0.73-0.29-1.02-0.51c-0.51-0.44-0.95-1.16-0.95-2.26c0-1.16,0.44-1.82,0.95-2.26c0.3-0.22,0.59-0.44,1.02-0.51
			c0.36-0.15,0.87-0.22,1.38-0.22h0.51V37.75z M97.16,37.01c-0.29,0.22-0.59,0.37-1.02,0.51c-0.43,0.14-0.87,0.22-1.38,0.22h-0.51
			v-5.98h0.51c0.51,0,0.95,0.07,1.38,0.22c0.44,0.07,0.73,0.29,1.02,0.51c0.51,0.44,0.94,1.09,0.94,2.26
			C98.11,35.85,97.67,36.58,97.16,37.01z"/>
		<path class="st0" d="M65.1,38.98c1.89,1.46,4.73,1.97,6.85,1.97c1.96,0,4.88-0.51,6.78-1.97c1.53-1.17,2.26-2.77,2.26-4.16
			c0-1.38-0.73-2.99-2.26-4.15c-1.9-1.46-4.81-1.97-6.78-1.97c-2.11,0-4.95,0.51-6.85,1.97c-1.53,1.16-2.26,2.77-2.26,4.15
			C62.84,36.21,63.57,37.82,65.1,38.98z M68.6,31.62c0.95-1.24,2.19-1.46,3.35-1.46c1.02,0,2.34,0.22,3.28,1.46
			c0.8,1.02,0.95,2.19,0.95,3.21c0,1.03-0.15,2.19-0.95,3.21c-0.94,1.23-2.25,1.53-3.28,1.53c-1.17,0-2.4-0.29-3.35-1.53
			c-0.8-1.02-0.95-2.18-0.95-3.21C67.65,33.81,67.8,32.65,68.6,31.62z"/>
		<path class="st0" d="M62.41,32.65c0-0.88-0.29-1.97-1.6-2.77c-1.02-0.66-2.48-0.8-4.81-0.8h-0.66h-6.85v11.51h4.37v-4.22h2.48
			h0.87c2.11,0,3.57-0.22,4.59-0.87C62.11,34.69,62.41,33.52,62.41,32.65z M57.01,34.11c-0.44,0.36-1.09,0.5-1.67,0.5
			c-0.15,0-0.29,0-0.44,0h-2.04v-3.79h2.04c0.15,0,0.29,0,0.44,0c0.59,0,1.24,0.14,1.74,0.44c0.65,0.44,0.81,1.02,0.81,1.38
			C57.89,33.01,57.74,33.67,57.01,34.11z"/>
		<path class="st0" d="M18.47,37.23h2.98h3.06l1.89,3.35h4.88l-6.63-11.51h-3.2h-0.88l-6.05,11.51h2.19L18.47,37.23z M21.31,31.7
			h0.07l0.08,0.07l2.19,3.93h-2.19h-2.19L21.31,31.7z"/>
		<polygon class="st0" points="133.45,29.07 133.45,30.82 138.18,30.82 138.18,40.58 142.55,40.58 142.55,30.82 147.29,30.82 
			147.29,29.07 		"/>
		<path class="st0" d="M30.27,50.57c-0.07,0.22-0.14,0.36-0.29,0.51l1.75,0.29l2.4,0.51l1.24-0.66l-3.64-0.43L30.27,50.57z"/>
		<path class="st0" d="M29.84,48.96c0,0.44-0.07,0.8-0.22,1.1v0.07c-0.36,1.02-1.38,1.53-2.33,1.53c-0.07,0-0.07,0-0.15,0
			c-0.95-0.08-1.81-0.58-2.25-1.53c-0.15-0.37-0.22-0.73-0.22-1.17h-2.91h-7.22l1.89,1.24l5.32-0.29l2.4-0.14
			c0.15,0.58,0.36,1.09,0.73,1.46c0.58,0.66,1.45,1.02,2.25,1.1c0.08,0,0.08,0,0.15,0c0.87,0,1.75-0.37,2.33-1.1
			c0.37-0.36,0.59-0.87,0.73-1.46l1.39,0.07l6.34,0.36l1.82-1.24h-8.16H29.84z"/>
		<path class="st0" d="M29.91,51.22c-0.15,0.08-0.22,0.22-0.29,0.29c-0.07,0.07-0.14,0.15-0.22,0.22l0.22,0.07l2.12,0.66h0.14
			l1.53-0.51l-1.67-0.37L29.91,51.22z"/>
		<path class="st0" d="M30.57,49.99c-0.07,0.15-0.15,0.29-0.15,0.44l1.31,0.15l4.37,0.51l1.46-0.66l-5.83-0.36L30.57,49.99z"/>
		<path class="st0" d="M25.1,51.74c-0.07-0.07-0.15-0.15-0.22-0.15c-0.07-0.14-0.22-0.29-0.29-0.36l-2.84,0.59l-0.66,0.15l0.66,0.22
			l0.8,0.29l2.33-0.73H25.1z"/>
		<path class="st0" d="M27.65,47.58l-0.36,0.22l-0.15,0.07l-1.38,0.66l0.43,1.09l0.73-0.36l0.22,0.51l0.73,1.68
			c0.22-0.07,0.44-0.15,0.66-0.29l-1.02-2.19l1.02-0.51L27.65,47.58z"/>
		<path class="st0" d="M29.84,48.75h0.58c-0.15-0.73-0.43-1.31-0.8-1.82c-0.58-0.73-1.38-1.31-2.33-1.67l-0.15-0.07
			c-0.07,0-0.14-0.07-0.22-0.07c0.08,0,0.15,0.07,0.22,0.15c0.08,0,0.08,0.07,0.15,0.07c1.02,0.73,1.9,1.6,2.33,2.77
			C29.69,48.31,29.76,48.53,29.84,48.75z"/>
		<path class="st0" d="M24.15,50.42c-0.07-0.15-0.15-0.29-0.15-0.44l-2.26,0.15l-4.81,0.29l1.39,0.73l3.43-0.44L24.15,50.42z"/>
		<path class="st0" d="M29.18,52.61c0.21-0.14,0.29-0.29,0.43-0.44c0.07,0,0.15-0.07,0.15-0.07l-0.15-0.07l-0.36-0.15
			c-0.66,0.44-1.31,0.65-1.96,0.65c-0.07,0-0.07,0-0.15,0c-0.58,0-1.23-0.22-1.81-0.58l-0.37,0.44c0.15,0.14,0.3,0.22,0.37,0.29
			l-0.44,0.8l-0.15,0.37c0,0.08,0.07,0.15,0.15,0.22c0.14,0.07,0.44,0.15,0.58,0.07l0.51-1.16c0.36,0.07,0.74,0.14,1.17,0.14
			c0.08,0,0.08,0,0.15,0c0.43,0,0.87-0.07,1.24-0.22l0.59,1.24l0.5-0.22l0.22-0.08l-0.22-0.44L29.18,52.61z"/>
		<path class="st0" d="M24.52,51.08c-0.15-0.15-0.22-0.29-0.29-0.51l-2.48,0.36l-2.7,0.36l1.24,0.58l1.46-0.3L24.52,51.08z"/>
		<path class="st0" d="M56.28,47.36c-0.36-0.44-1.02-0.44-1.38-0.44h-0.58h-1.39l-1.97,6.34h0.88l0.87-2.77h1.24
			c0.07,0,0.22,0,0.36,0c0.51-0.07,0.95-0.29,1.32-0.51c0.51-0.36,0.87-1.02,0.94-1.6C56.65,48.02,56.58,47.65,56.28,47.36z
			 M55.63,48.46c0,0.37-0.3,0.8-0.51,1.02c-0.22,0.15-0.51,0.29-0.8,0.29c-0.07,0-0.15,0-0.15,0h-1.24l0.66-2.11h0.73h0.51
			c0.29,0,0.58,0.07,0.73,0.22C55.56,47.94,55.7,48.17,55.63,48.46z"/>
		<path class="st0" d="M59.2,48.75c-0.22,0-0.44,0.07-0.73,0.15c-0.29,0.07-0.51,0.22-0.8,0.43c-0.73,0.66-1.09,1.68-1.16,2.41
			c-0.07,0.29-0.07,0.73,0.15,1.02c0.07,0.14,0.37,0.59,1.17,0.59c0.22,0,0.43-0.08,0.65-0.15c0.29-0.07,0.58-0.21,0.87-0.44
			c0.73-0.66,1.09-1.67,1.17-2.4c0.08-0.44,0-0.8-0.14-1.02C60.22,49.04,59.85,48.75,59.2,48.75z M59.56,50.86l-0.07,0.36
			c-0.15,0.44-0.29,0.88-0.73,1.24c-0.07,0.07-0.15,0.14-0.29,0.14c-0.15,0.07-0.29,0.14-0.51,0.14c-0.36,0-0.51-0.14-0.58-0.29
			c-0.22-0.37-0.08-0.88,0.07-1.24l0.07-0.36c0.14-0.37,0.37-0.87,0.66-1.17c0.07-0.07,0.22-0.15,0.29-0.22
			c0.22-0.07,0.37-0.15,0.58-0.15c0.29,0,0.51,0.15,0.58,0.29C59.85,49.91,59.71,50.49,59.56,50.86z"/>
		<path class="st0" d="M64.88,49.04c-0.22-0.22-0.58-0.29-0.88-0.29c-0.44,0-0.94,0.15-1.31,0.37c-0.87,0.58-1.39,1.82-1.46,2.62
			c-0.07,0.36,0,0.87,0.22,1.16c0.22,0.22,0.59,0.44,1.1,0.44c0.44,0,0.73-0.08,1.02-0.22c0.22-0.07,0.44-0.14,0.58-0.22l-0.07-0.5
			c-0.14,0.07-0.29,0.14-0.51,0.22c-0.29,0.07-0.44,0.07-0.73,0.07c-0.44,0-0.66-0.22-0.73-0.36c-0.15-0.29-0.07-0.66,0-1.02
			l0.22-0.58c0.15-0.44,0.29-0.95,0.8-1.17c0.22-0.15,0.44-0.22,0.58-0.22c0.36,0,0.51,0.15,0.58,0.22
			c0.15,0.22,0.07,0.44-0.07,0.73l0.73-0.07c0.08-0.14,0.15-0.36,0.15-0.51C65.18,49.4,65.1,49.19,64.88,49.04z"/>
		<path class="st0" d="M69.18,49.04c-0.22-0.22-0.51-0.29-0.8-0.29c-0.43,0-0.95,0.15-1.38,0.37c-0.8,0.58-1.31,1.82-1.39,2.62
			c-0.08,0.36,0,0.87,0.21,1.16c0.22,0.22,0.58,0.44,1.09,0.44c0.37,0,0.73-0.08,1.02-0.22c0.22-0.07,0.43-0.14,0.58-0.22l-0.07-0.5
			c-0.15,0.07-0.36,0.14-0.51,0.22c-0.29,0.07-0.44,0.07-0.73,0.07c-0.43,0-0.66-0.22-0.73-0.36c-0.15-0.29-0.08-0.66,0-1.02
			l0.21-0.58c0.15-0.44,0.3-0.95,0.81-1.17c0.22-0.15,0.37-0.22,0.58-0.22c0.36,0,0.51,0.15,0.58,0.22c0.07,0.22,0,0.44-0.07,0.73
			l0.73-0.07c0.07-0.14,0.14-0.36,0.14-0.51C69.55,49.4,69.47,49.19,69.18,49.04z"/>
		<polygon class="st0" points="70.71,52.24 71.73,48.89 71,48.89 69.69,53.26 70.57,53.26 73.62,49.84 72.53,53.26 73.26,53.26 
			74.65,48.89 73.77,48.89 		"/>
		<path class="st0" d="M78.14,47h-0.58c-0.07,0.15-0.15,0.36-0.15,0.51c-0.07,0.22,0.07,0.44,0.15,0.51
			c0.22,0.15,0.58,0.15,0.73,0.15c0.29,0,0.58,0,0.88-0.15c0.36-0.22,0.51-0.44,0.58-0.73c0-0.14,0.07-0.22,0.07-0.29h-0.58
			l-0.07,0.15c-0.08,0.14-0.08,0.29-0.3,0.36c-0.14,0.15-0.22,0.15-0.36,0.15c-0.15,0-0.29,0-0.37-0.15
			c-0.14-0.15-0.07-0.29-0.07-0.36L78.14,47z"/>
		<polygon class="st0" points="75.96,52.24 77.05,48.89 76.24,48.89 74.94,53.26 75.81,53.26 78.87,49.84 77.78,53.26 78.58,53.26 
			79.89,48.89 79.02,48.89 		"/>
		<path class="st0" d="M83.97,49.04c-0.22-0.22-0.59-0.29-0.88-0.29c-0.36,0-0.95,0.15-1.31,0.37c-0.88,0.58-1.31,1.82-1.46,2.62
			c0,0.36,0.07,0.87,0.29,1.16c0.15,0.22,0.59,0.44,1.1,0.44c0.36,0,0.73-0.08,1.02-0.22c0.22-0.07,0.43-0.14,0.58-0.22l-0.07-0.5
			c-0.22,0.07-0.37,0.14-0.59,0.22c-0.21,0.07-0.44,0.07-0.65,0.07c-0.51,0-0.66-0.22-0.8-0.36c-0.07-0.29-0.07-0.66,0.07-1.02
			l0.15-0.58c0.14-0.44,0.36-0.95,0.79-1.17c0.23-0.15,0.44-0.22,0.65-0.22c0.29,0,0.51,0.15,0.51,0.22
			c0.15,0.22,0.08,0.44-0.07,0.73l0.73-0.07c0.07-0.14,0.14-0.36,0.22-0.51C84.26,49.4,84.19,49.19,83.97,49.04z"/>
		<path class="st0" d="M88.78,48.75c-0.15,0-0.22,0.07-0.36,0.07c-0.37,0.14-0.51,0.44-0.74,0.73l-0.28,0.44
			c-0.08,0.15-0.23,0.37-0.37,0.44c-0.15,0.15-0.36,0.15-0.51,0.15h-0.51l0.51-1.68h-0.73l-1.39,4.37h0.8l0.58-2.04h0.58
			c0.15,0,0.3,0,0.44,0.15c0.15,0.14,0.15,0.29,0.15,0.51l0.22,1.38h0.8l-0.22-1.68c0,0-0.08-0.29-0.21-0.44
			c-0.08-0.15-0.22-0.22-0.37-0.22v-0.07c0.15,0,0.37-0.07,0.44-0.22c0.22-0.15,0.29-0.29,0.44-0.51l0.22-0.37
			c0.07-0.07,0.15-0.22,0.29-0.29c0.07-0.07,0.22-0.07,0.29-0.07l0.29-0.58C89,48.82,88.93,48.75,88.78,48.75z"/>
		<polygon class="st0" points="90.02,52.24 91.04,48.89 90.31,48.89 88.93,53.26 89.87,53.26 92.86,49.84 91.84,53.26 92.57,53.26 
			93.95,48.89 93.01,48.89 		"/>
		<path class="st0" d="M97.01,48.75c-0.15,0-0.37,0.07-0.51,0.07c-0.37,0.14-0.66,0.29-0.95,0.51c-0.87,0.8-1.38,2.62-1.02,3.35
			c0.15,0.22,0.51,0.66,1.31,0.66c0.22,0,0.43-0.08,0.66-0.08c0.14-0.07,0.22-0.07,0.36-0.14c0.22-0.07,0.44-0.14,0.58-0.22
			l-0.07-0.5c-0.22,0.07-0.37,0.14-0.58,0.22c-0.07,0-0.22,0-0.29,0.07c-0.15,0-0.22,0-0.37,0c-0.43,0-0.73-0.15-0.8-0.36
			c-0.15-0.22-0.07-0.66,0-0.95v-0.15h1.17h1.38L97.96,51c0.22-0.65,0.36-1.24,0.14-1.75C97.96,49.04,97.6,48.75,97.01,48.75z
			 M97.38,50.49l-0.07,0.15h-0.8h-0.95v-0.07c0.15-0.44,0.37-0.73,0.58-0.95c0.08-0.07,0.22-0.15,0.37-0.22
			c0.14,0,0.22-0.08,0.36-0.08c0.22,0,0.37,0.08,0.51,0.29C97.52,49.84,97.45,50.2,97.38,50.49z"/>
		<path class="st0" d="M105.83,48.75c-0.22,0-0.58,0.07-0.94,0.15c-0.15,0.07-0.3,0.07-0.37,0.15c-0.44,0.22-0.59,0.58-0.66,0.95
			h0.73c0.07-0.22,0.15-0.29,0.3-0.44c0,0,0-0.07,0.07-0.07c0.22-0.15,0.51-0.15,0.66-0.15c0.29,0,0.43,0.08,0.51,0.15
			c0.22,0.22,0.14,0.51,0.07,0.58l-0.15,0.58h-0.65c-0.22,0-0.37,0-0.51,0.07c-0.52,0-0.88,0.15-1.09,0.29
			c-0.51,0.37-0.73,0.88-0.8,1.31c-0.07,0.36,0.14,0.66,0.29,0.8c0.22,0.14,0.51,0.22,0.8,0.22c0.29,0,0.51-0.08,0.81-0.22
			c0.22-0.14,0.43-0.29,0.58-0.44l-0.15,0.58h0.66l0.87-2.84c0.07-0.22,0.15-0.44,0.15-0.66c0.07-0.29,0-0.44-0.08-0.58
			C106.7,48.89,106.27,48.75,105.83,48.75z M105.61,52.1c-0.15,0.22-0.37,0.37-0.51,0.44c-0.07,0.07-0.15,0.07-0.22,0.15
			c-0.15,0-0.3,0.07-0.44,0.07c-0.22,0-0.37-0.07-0.51-0.22c-0.07-0.07-0.14-0.22-0.07-0.36c0-0.29,0.15-0.58,0.44-0.72
			c0.15-0.15,0.29-0.22,0.59-0.22c0.07,0,0.22,0,0.29,0h0.73L105.61,52.1z"/>
		<path class="st0" d="M110.64,48.89h-1.24h-0.58l-1.38,4.37h1.89h0.07c0.29-0.07,0.66-0.14,1.09-0.44c0.44-0.29,0.59-0.8,0.66-1.09
			c0-0.22,0-0.37-0.07-0.52c-0.07-0.07-0.22-0.22-0.44-0.29c0.14-0.07,0.36-0.15,0.58-0.36c0.22-0.22,0.37-0.51,0.44-0.8
			c0-0.29-0.07-0.44-0.14-0.58C111.29,48.89,110.93,48.89,110.64,48.89z M109.98,52.46c-0.15,0.14-0.37,0.22-0.58,0.22h-1.02
			l0.43-1.38h0.58h0.36c0.15,0,0.29,0,0.44,0.15c0.14,0.07,0.14,0.22,0.14,0.36C110.35,52.1,110.2,52.32,109.98,52.46z
			 M110.49,50.57c-0.21,0.14-0.43,0.14-0.65,0.14h-0.43h-0.44l0.44-1.31h0.88c0.14,0,0.29,0.07,0.43,0.15
			c0.08,0.07,0.15,0.15,0.15,0.36C110.79,50.13,110.71,50.42,110.49,50.57z"/>
		<polygon class="st0" points="113.05,52.24 114.13,48.89 113.33,48.89 112.02,53.26 112.9,53.26 115.88,49.84 114.87,53.26 
			115.59,53.26 116.98,48.89 116.11,48.89 		"/>
		<path class="st0" d="M121.2,49.77c0.07-0.29,0-0.44-0.07-0.58c-0.22-0.29-0.66-0.44-1.09-0.44c-0.22,0-0.58,0.07-0.95,0.15
			c-0.15,0.07-0.29,0.07-0.36,0.15c-0.44,0.22-0.58,0.58-0.66,0.95h0.73c0.07-0.22,0.14-0.29,0.29-0.44c0,0,0-0.07,0.08-0.07
			c0.22-0.15,0.51-0.15,0.65-0.15c0.29,0,0.44,0.08,0.51,0.15c0.22,0.22,0.15,0.51,0.07,0.58l-0.15,0.58h-0.66
			c-0.22,0-0.37,0-0.51,0.07c-0.51,0-0.87,0.15-1.09,0.29c-0.51,0.37-0.73,0.88-0.8,1.31c-0.08,0.36,0.14,0.66,0.29,0.8
			c0.22,0.14,0.51,0.22,0.8,0.22c0.29,0,0.51-0.08,0.8-0.22c0.22-0.14,0.44-0.29,0.58-0.44l-0.14,0.58h0.66l0.87-2.84
			C121.13,50.2,121.2,49.99,121.2,49.77z M119.82,52.1c-0.15,0.22-0.36,0.37-0.51,0.44c-0.08,0.07-0.15,0.07-0.22,0.15
			c-0.15,0-0.29,0.07-0.43,0.07c-0.15,0-0.37-0.07-0.51-0.22c-0.07-0.07-0.14-0.22-0.07-0.36c0-0.29,0.14-0.58,0.43-0.72
			c0.15-0.15,0.3-0.22,0.59-0.22c0.08,0,0.22,0,0.29,0h0.73L119.82,52.1z"/>
		<path class="st0" d="M123.1,49.55c-0.22,0.58-0.51,1.53-0.73,1.97c-0.14,0.37-0.29,0.65-0.58,0.88c-0.22,0.14-0.51,0.29-0.73,0.29
			v0.66c0.29,0,0.66-0.15,0.95-0.36c0.51-0.29,0.8-0.81,0.95-1.31c0.29-0.51,0.44-1.09,0.65-1.68l0.15-0.51h1.24l-1.17,3.79h0.73
			l1.31-4.37h-2.56L123.1,49.55z"/>
		<polygon class="st0" points="127.11,52.24 128.12,48.89 127.4,48.89 126.08,53.26 126.96,53.26 129.94,49.84 128.93,53.26 
			129.65,53.26 131.04,48.89 130.16,48.89 		"/>
		<polygon class="st0" points="134.61,50.64 132.71,50.64 133.3,48.89 132.5,48.89 131.19,53.26 131.91,53.26 132.57,51.22 
			134.39,51.22 133.81,53.26 134.54,53.26 135.92,48.89 135.12,48.89 		"/>
		<polygon class="st0" points="137.09,52.24 138.18,48.89 137.38,48.89 136.07,53.26 136.94,53.26 140,49.84 138.91,53.26 
			139.64,53.26 141.02,48.89 140.15,48.89 		"/>
		<polygon class="st0" points="142.26,52.24 143.28,48.89 142.55,48.89 141.16,53.26 142.04,53.26 145.1,49.84 144.01,53.26 
			144.81,53.26 146.12,48.89 145.25,48.89 		"/>
	</g>
	<g>
		<path class="st9" d="M208.36,34.24L208.36,34.24c1.8,1.83,2.99,4.28,3.19,7.04c0.43,6.1-4.17,11.39-10.27,11.81
			c-2.87,0.2-5.55-0.71-7.64-2.36l-0.01,0.01c2.17,2.02,5.13,3.17,8.32,2.95c6.1-0.43,10.7-5.72,10.27-11.81
			C211.99,38.8,210.53,36.1,208.36,34.24"/>
		<path class="st9" d="M188.74,46.82c-0.35,0.2-0.43,0.49-0.25,0.95c0.16,0.42,0.43,0.59,0.71,0.48c0.22-0.08,0.26-0.28,0.17-0.78
			l-0.04-0.19c-0.09-0.49-0.11-0.7-0.05-0.92c0.06-0.24,0.19-0.39,0.4-0.47c0.5-0.2,0.97,0.11,1.25,0.81
			c0.31,0.76,0.14,1.33-0.45,1.58l-0.15-0.37c0.41-0.18,0.52-0.56,0.29-1.12c-0.18-0.45-0.47-0.65-0.77-0.53
			c-0.24,0.09-0.3,0.32-0.21,0.83l0.03,0.22l0.03,0.19c0.07,0.38,0.07,0.51,0.04,0.67c-0.05,0.2-0.18,0.35-0.39,0.43
			c-0.47,0.19-0.92-0.09-1.18-0.72c-0.27-0.69-0.13-1.2,0.4-1.44L188.74,46.82z"/>
		<polygon class="st9" points="188.43,42.82 190.1,41.41 190.12,41.93 188.69,43.11 189.15,43.62 190.15,43.6 190.16,44.01 
			187.31,44.07 187.3,43.66 188.42,43.64 188.58,43.64 188.72,43.64 188.63,43.54 188.53,43.43 187.27,42.07 187.25,41.53 		"/>
		<path class="st9" d="M189.69,38.41l1.1,0.39l-0.13,0.39l-1.1-0.39l-1.97,0.59l0.17-0.47l1.22-0.34l0.15-0.04
			c0.06-0.02,0.1-0.03,0.21-0.05c-0.1-0.11-0.12-0.14-0.22-0.28l-0.76-1.02l0.16-0.45L189.69,38.41z"/>
		<polygon class="st9" points="191.62,33.16 191.02,33.9 192.82,35.38 192.39,35.91 190.59,34.43 189.98,35.17 189.58,34.83 
			191.21,32.83 		"/>
		<polygon class="st9" points="195.47,30.46 194.04,31.3 194.34,31.83 195.66,31.06 195.91,31.48 194.58,32.25 194.94,32.86 
			196.41,32 196.68,32.45 194.62,33.66 193.17,31.19 195.21,30 		"/>
		<path class="st9" d="M201,31.57l-0.75,0.05L199.88,31l-1.15,0.19l-0.16,0.7l-0.71,0.18l0.75-3.12l0.71-0.11L201,31.57z
			 M199.37,30.1c-0.16-0.26-0.22-0.38-0.31-0.58c-0.02,0.2-0.05,0.35-0.12,0.65l-0.12,0.54l0.83-0.13L199.37,30.1z"/>
		<path class="st9" d="M205.58,32.48l-0.6-0.23l0.23-0.85c0.02-0.1,0.06-0.24,0.11-0.41c0.05-0.18,0.09-0.32,0.12-0.42
			c0.04-0.12,0.07-0.23,0.11-0.36l0.07-0.2c-0.17,0.29-0.23,0.39-0.39,0.62c-0.07,0.1-0.13,0.19-0.18,0.26l-0.81,1.13l-0.52-0.14
			l-0.16-1.37c-0.01-0.07-0.02-0.17-0.03-0.3c-0.01-0.18-0.02-0.32-0.02-0.41c0-0.08,0-0.19,0-0.35l-0.07,0.35
			c-0.08,0.38-0.12,0.54-0.23,0.99l-0.24,0.92l-0.63-0.1l0.71-2.79l0.96,0.18l0.14,1.32c0.03,0.31,0.04,0.57,0.03,0.94
			c0.11-0.21,0.15-0.28,0.27-0.47c0.08-0.13,0.16-0.24,0.22-0.34l0.75-1.08l0.91,0.31L205.58,32.48z"/>
		<path class="st9" d="M200.13,37.98c-0.35,0.3-1.03,0.96-1.69,1.6l-0.75,0.72c-0.61-0.11-1.22-0.16-1.84-0.16
			c-1.39,0-2.66,0.38-3.24,0.98c-0.22,0.23-0.33,0.47-0.33,0.73c0.02,0.68,0.78,1.01,1.02,1.1c1.23,0.46,2.27,0.33,3.36-0.44
			c0.6-0.42,1.32-1.09,1.89-1.64c0.44,0.1,0.94,0.23,1.48,0.39l0.5,0.14c-0.64,0.63-1.3,1.3-1.91,1.83l-0.05,0.04
			c-0.85,0.74-1.46,1.29-2.35,1.49c-0.62,0.13-1.07,0-1.21-0.08c-0.01,0-0.03,0.03-0.03,0.03c0.51,0.42,1,0.66,1.83,0.59
			c0.8-0.07,1.72-0.57,2.65-1.45l1.27-1.25l0.89-0.88c0,0,1.8,0.53,1.8,0.53c0.01,0,0.03,0.01,0.03,0.01
			c-0.02,0-1.11,1.08-1.11,1.08l-0.95,0.95c-0.98,0.95-1.51,1.44-2.08,1.84c-0.94,0.67-1.75,1.02-2.46,1.07
			c-0.37,0.03-0.9,0-1.35-0.26c-0.02-0.01-0.05,0.02-0.05,0.02c0.48,0.41,1.08,0.91,2.09,0.88c1.15-0.04,2.17-0.59,3.76-2.04
			c0.73-0.67,1.44-1.41,2.08-2.07l1.18-1.2c0.78,0.17,1.47,0.24,2.24,0.23c1.12-0.02,2.07-0.56,2.08-1.17
			c0.01-0.45-0.36-0.69-0.58-0.84c-0.18-0.12-0.68-0.4-1.37-0.4c-0.84,0-1.72,0.37-2.6,1.1l-0.59,0.52c0.01,0-0.21-0.06-0.21-0.06
			l-1.64-0.46c0.48-0.45,0.89-0.84,1.27-1.17c0.9-0.8,1.89-1.13,2.48-1.16c0.42-0.03,1.16,0.01,1.46,0.22
			c0.02,0,0.04-0.03,0.04-0.03c-0.81-0.69-1.51-0.78-2.08-0.78c-0.57,0-1.48,0.18-2.6,1.05c-0.45,0.35-1.05,0.94-1.67,1.57
			c0-0.01-0.83-0.26-0.83-0.26l-0.2-0.06l-0.87-0.26c0.02,0,0.5-0.47,0.5-0.47c0.59-0.58,1.14-1.12,1.58-1.49
			c1.58-1.32,2.57-1.5,3.26-1.5c0.75,0,1.35,0.15,1.78,0.47c0.01,0,0.03-0.03,0.03-0.03c-0.88-0.8-1.52-1.05-2.62-1.06
			C202.41,36.46,201.25,37,200.13,37.98 M193.94,42.71c-0.51-0.03-0.76-0.24-0.76-0.63c0-0.05,0.03-1.3,2.9-1.44
			c0.33-0.02,0.69-0.03,1.25,0.03c-0.02,0-0.32,0.28-0.32,0.28l-0.18,0.16C196.13,41.73,194.97,42.78,193.94,42.71 M205.52,41.69
			c0.82-0.56,1.51-0.85,1.93-0.84c0.25,0.01,0.55,0.08,0.55,0.39c0,0.32-0.3,0.59-0.9,0.8c-0.52,0.19-1.33,0.23-2.2,0.14
			C205.15,41.97,205.35,41.81,205.52,41.69"/>
		<path class="st9" d="M206.75,30.21c0.1-0.24,0.37-0.35,0.62-0.25c0.24,0.1,0.35,0.38,0.25,0.62c-0.1,0.24-0.37,0.35-0.62,0.24
			C206.76,30.71,206.65,30.44,206.75,30.21 M207.54,30.58c0.11-0.19,0.03-0.43-0.16-0.54c-0.19-0.1-0.43-0.04-0.54,0.15
			c-0.1,0.19-0.03,0.44,0.16,0.54C207.18,30.84,207.43,30.77,207.54,30.58 M207.26,30.72l-0.08-0.04l-0.02-0.28l-0.08-0.04
			l-0.11,0.21l-0.06-0.03l0.25-0.45l0.19,0.11c0.08,0.04,0.15,0.11,0.09,0.21c-0.05,0.09-0.13,0.09-0.21,0.04L207.26,30.72z
			 M207.2,30.33c0.06,0.03,0.15,0.1,0.19,0.02c0.03-0.05-0.03-0.09-0.08-0.12l-0.12-0.07l-0.06,0.12L207.2,30.33z"/>
	</g>
</g>
</svg>
